[
  {
    "domain": ".app.roll20.net",
    "expirationDate": 1721364148,
    "hostOnly": false,
    "httpOnly": false,
    "name": "__stripe_mid",
    "path": "/",
    "sameSite": "strict",
    "secure": true,
    "session": false,
    "storeId": "0",
    "value": "0156bee9-de00-465d-8970-564b0c162fe20168bd",
    "id": 1
  },
  {
    "domain": ".app.roll20.net",
    "expirationDate": 1689829948,
    "hostOnly": false,
    "httpOnly": false,
    "name": "__stripe_sid",
    "path": "/",
    "sameSite": "strict",
    "secure": true,
    "session": false,
    "storeId": "0",
    "value": "bbba1122-4c4b-4574-9258-e5b6f592f01f78070b",
    "id": 2
  },
  {
    "domain": ".roll20.net",
    "expirationDate": 1721364141,
    "hostOnly": false,
    "httpOnly": false,
    "name": "__stripe_mid",
    "path": "/",
    "sameSite": "strict",
    "secure": true,
    "session": false,
    "storeId": "0",
    "value": "0156bee9-de00-465d-8970-564b0c162fe20168bd",
    "id": 3
  },
  {
    "domain": ".roll20.net",
    "expirationDate": 1689829941,
    "hostOnly": false,
    "httpOnly": false,
    "name": "__stripe_sid",
    "path": "/",
    "sameSite": "strict",
    "secure": true,
    "session": false,
    "storeId": "0",
    "value": "bbba1122-4c4b-4574-9258-e5b6f592f01f78070b",
    "id": 4
  },
  {
    "domain": ".roll20.net",
    "expirationDate": 1721274735.661054,
    "hostOnly": false,
    "httpOnly": true,
    "name": "cf_clearance",
    "path": "/",
    "sameSite": "no_restriction",
    "secure": true,
    "session": false,
    "storeId": "0",
    "value": "NP2zq8cK8gGQttcSMlCiWkqWHatpZGYBhnXTPs9ujGU-1689738729-0-160.0.0",
    "id": 5
  },
  {
    "domain": ".roll20.net",
    "expirationDate": 1721364148,
    "hostOnly": false,
    "httpOnly": false,
    "name": "gdpr_accepts_cookies",
    "path": "/",
    "sameSite": "unspecified",
    "secure": false,
    "session": false,
    "storeId": "0",
    "value": "true",
    "id": 6
  },
  {
    "domain": ".roll20.net",
    "expirationDate": 1691124149.444816,
    "hostOnly": false,
    "httpOnly": true,
    "name": "rack.session",
    "path": "/",
    "sameSite": "unspecified",
    "secure": true,
    "session": false,
    "storeId": "0",
    "value": "575b6e960c8a6be87e73d67bdf6292b08dfe845f65d074b8c2635e27a800a5cf",
    "id": 7
  },
  {
    "domain": ".roll20.net",
    "expirationDate": 1692492148,
    "hostOnly": false,
    "httpOnly": false,
    "name": "roll20tempauth",
    "path": "/",
    "sameSite": "unspecified",
    "secure": false,
    "session": false,
    "storeId": "0",
    "value": "25",
    "id": 8
  }
]