[
  {
    "Name": "A Message to Juggernaut-117",
    "Bio": "This small note has \"Juggernaut-117\" written on one side and the following string of numbers on the other side:01000111 01001111 00100000 01010100 01001111 00100000 01000001 01001101 01000010 01000101 01010010 00100000 01010010 01001111 01000001 01000100"
  },
  {
    "Name": "Archeological Report - Ironrock",
    "Bio": "Archeological Survey and ReportTo: Triumvirate of Kes (Keacyne A., Ithuun E., Blasttip M.)Authors: Sternkith B., Scalecracker I.It is the judgement of these researchers that the tomb unearthed beneath the town of Ironrock, Ortelia on the 168th day of this year is in factual certainty the tomb of Amten, Amenmeseshikusas, and Amerys.  According to legend, these three brothers were cast out of the region now known today as the northern Eracian Empire and forced to travel westward.  It is the findings of these researchers that the three brothers eventually settled in what is now known today as Ironrock.  The purpose for this settlement is unknown.  The legend as recorded details the attempts of Amten to create an army of undead soldiers.  It is the belief of these researchers that their attempts continued into undeath.  At some point, the tomb was discovered and resealed as all mentions of the brother's names were removed from any hieroglyphics.The threat of Amten, Amenmeseshikusas, and Amerys is currently resolved.  Adventurers, including one of the authors of this report, slew all three brothers in their mummified forms before they could escape their tomb.  All three are beyond restoration.These researchers recommend that the tomb be marked for further investigation by Kes adepts."
  },
  {
    "Name": "Assassin-087's List",
    "Bio": "Polo HumblegrainLocation: OrteliaNote: Target already expired upon acquisition.DabbledobLocation: OrteliaNote: Target Eliminated.  Construct designated Caretaker-001 reprogrammed per secondary objective.Juggernaut-117Location: Ortelia.  Target reacquired in Gisesia.Grimron BraveprideLocation: Kes"
  },
  {
    "Name": "Dabbledob's Journal",
    "Bio": "(The journal starts with several pages of scribbling.  Formulas half-completed and scratched through.  Calculations run along the margins in a jumble of symbols that you may never figure out.  Eventually, you find a page written in common.)Eureka!  I've done it.  My automatic tidiness spell works!  By giving the books in the library the smallest hint of animation, they can return to their proper places on the shelves.  Automatically!  This will revolutionize library cleanliness protocols for all of Ortesia!  All I have to do is find a way to cast the spell so that it covers the entire library.(The next dozen pages contain more scribblings, including diagrams of the library and the surrounding area of Vesucan.  Eventually, you find another passage written in common.)What a stroke of luck!  My research indicates that this very library was built on top of a magical leyline.  I should be able to construct a device to channel that leyline energy into my tidiness spell to increase its magnitude by a factor of at least six.  I'll have to build the device on the second floor so that the effect trickles down into the library properly.I was visited by the mayor today, and her gnome assistant accidently knocked over the goblet of wine I was drinking to the floor.  To our surprise, the books I had already enchanted cleaned the mess!  One of them held a mop in its pages like a canine would in its jaws.  What a remarkable development!  The books didn't stop until the floor was utterly pristine.  Poor Ms. Amastacia almost slipped on the shiney floor!  I eventually had to temporarily deactivate the device to get the books to stop.(The journal falls back into technical information once again.  Included are a series of schematics for a device designed to channel leyline energy.  Inside are complete instructions to activate and deactivate the device, and any member of your party should be able to easily follow them.  There is one final page written in common.)Ms. Amastacia was concerned about security. It stands to reason that once my discovery goes public, various ne'er-do-wells may attempt to steal my formula. I'll simply modify the spell and use it to activate The Caretaker this afternoon.  Grimron said I'd never get it working, but he didn't know I had an entire leyline's worth of energy to channel!  I must remember to invite him to the grand opening, just to see the look on his face."
  },
  {
    "Name": "Dabbledob's Weapon Schematic",
    "Bio": "These schematics were found hidden in the cover of Dabbledob's journal. Originally missed by the Hawks but later discovered by Virra Bafflestone.The plans appear to be for a prototype cannon designed to be mounted onto a mechanical construct utilizing both physical and magical components.  The design is compact and should be reasonably attachable to any humanoid construct.  The plans also include a compartment for an appendage to be swapped out with the cannon.These plans are considerably complex and can only be understood by a master in mechanical automaton construction."
  },
  {
    "Name": "Decree of Martial Law",
    "Bio": "My fellow Ortelians, it is with great reverence and the utmost humbleness that I accept your designation as the new sovereign monarch of Ortelia.  As your Queen, I shall do everything in my considerable power to protect these lands and usher a new era of prosperity for all of Ortelia.My father, Timothy Swain, fought in the Eracian Expansion so many years ago.  He gave his life defending our lands against the Eracians, and I have been forced to watch for many years as those same races that made up the Eracian ranks that took my father from me escape justice.  Even now, there is evidence of a cult brewing within our borders, no doubt created by and rostered by these very same undesirable races.The former King Orley failed to protect you. The Hawks guild failed to protect you. Ortelia failed to protect you, just as it did during the Expansion.No more.Our troops have already been assigned to bolster our borders from any future transgressions.  As my first official act as Queen of Ortelia on Day 181 of the 987th year of the age of Artemis, I am declaring martial law in Ortelia.Effective immediately, all nonessential travel to the capital of Ortis is suspended.Effective immediately, all borders of Ortelia are closed to other nations.Effective immediately, one garrison of troops in each province of Ortelia will act as law enforcement, with the commander of each division having total authority in judicial matters as my representative.Effective immediately, for suspicion of Eracian involvement all nonindigenous races in Ortelia are confined to their current town of residence unless authorized by my representative. This includes all non-Human, non-Elf, non-Dwarf, and non-Halfing races.  Sub-races, such as Duergar and Drow, are also included.Furthermore, all races described above shall pay a residency tax of 5 gold pieces a month as the just and due reparation to Ortelia.  Failure to pay this tax shall result in the deportation of the violating party as deemed fit by the local garrison's commander.Hard times are in our future, my dearest subjects, but together we can weather the storm that has been brewing for decades and finally cleanse our nation of the filth brought to us from Eracia. - Queen Maldressa Swain"
  },
  {
    "Name": "Gauntlet of Consequences",
    "Bio": "Requires Attunement by Lawful GoodWhen taking the attack action, the wearer of this gauntlet may substitute one of their attacks for a melee touch attack (-4 modifier) using a free hand.  On a successful hit, the target takes 3d8+2 fire damage."
  },
  {
    "Name": "Gauntlet of Truth",
    "Bio": "Requires Attunement by Lawful GoodThe wearer of this gauntlet may cast Zone of Truth at will."
  },
  {
    "Name": "Hawks Guildhall Refurbishing",
    "Bio": "The following is the list of upgrades available for purchase in the Hawks Guildhall.  Gloria will handle the details of hiring workers and finding supplies if the adventurers provide the necessary gold.  Gloria can maintain the Living Quarters by herself, but each additional room will require hiring staff at a rate of 15 gold per room per month.1) Havvish's Office2) Living Quarters (Squalid)3) Living Quarters Upgrade (Poor) - 200 gold4) Living Quarters Upgrade (Modest) - 320 gold, must have previous upgrade5) Sending Stones Alcove - 1000 gold.  Allows the creation and distribution of sending stones to Hawks members that link back to the Guildhall.  Gloria will usually be available to receive messages.6) Teleportation Circle - 7500 gold.  Allows instantaneous transportation to any other Teleportation circle in Esteria. Upgrades comes with magical wards to prevent unauthorized access.7) Armory - 2600 gold.  Holds 50 mundane weapons and armor, but not more than five of one type. 1 weapon may be substituted for 30 arrows, 20 bolts, or 6 shuriken.8) Chapel - 1000 gold per rank.  Religion checks made within the chapel gain a +1/2/3 bonus.9) Magical Laboratory - 1000 gold per rank.  Arcana checks made within the lab gain a +1/2/3 bonus.10) Library - 3400 gold.  +3 item bonus to one skill check made within the room.  May be purchased multiple times for the same room to give bonuses to more than one skill.11) Prison - 840 gold per rank.  Creatures placed in the room can't escape unless they succeed on a DC 21/29/37 Acrobatics or Athletics check.12) Throne Room - 1800 gold.  +1 item bonus to Bluff, Diplomacy, Persuasion, and Insight checks in the room.13) Torture Chamber - 680 gold per rank.  +1/2/3 bonus to Intimidate checks in the room.14) Defensive walls - 5000 gold.  Defensive walls surrounding the guildhall, 10 feet high and thick. Requires moderate DC to climb the wall. Can be purchased multiple times to increase the height or width 5 feet, or to make an extra wall.  Purchasing this upgrade will convert the Guildhall into a Stronghold.15) Iron Doors - 680 gold, requires Stronghold.  Replace the wooden doors at the entrance with reinforced iron.16) Moat - 3400 gold, requires Stronghold.  A 15 foot deep and 30 foot wide moat surrounds the Stronghold and includes a drawbridge.17) Superior Locks - 680 gold, requires Stronghold.  All doors have DC 27 locks."
  },
  {
    "Name": "Helm of Comprehend Languages",
    "Bio": "While wearing this helm, you can use an action to cast the comprehend languages spell from it at will."
  },
  {
    "Name": "Journal - Chapter 1 - \"The Pit of Moloch\"",
    "Bio": "You're not sure when this journal page appeared in your inventory.  It feels as if it has always been there.  The script is written in common and, somehow, you recognize the handwriting of the gnome Havvish.Day 107 of the 987th year of the age of ArtemisToday was a hell of a day.  Here I am trying to figure out how I'm going to rebuild the Hawks in Gandur, when four...count 'em, FOUR...wanna be adventurers show up at the door.  I don't have time to babysit another batch of suicidal adventurers.  Or so I thought.Gloria kept harassin' me to greet the newcomers, and I left 'em sitting there a good while. Gotta make an impression.  So, I go out there expecting to see the usual band of dwarves n' elves n' humans, and what do I get?  Well, one human.  But also a dark elf, a dragonling thing, and a Gods damn robot.  Gloria has got to start screening these adventurers.Anyway, rules is rules, and I'm not gonna turn away four hunks of cannon fodder.  As required, I officially inducted them into the Hawks.  I'll ask Gloria to send the paperwork to Ortis later, but she probably already did it.The only job I had was a request from the town sheriff, Roland Something, to find his little lost merchant.  My pappy fought the Eracians and I'm stuck sending goons off to hunt down deliveries of wool!  Anyway, I sent those four knuckleheads...Gods damn robot too....on their way to deal with it.Day 108 of the 987th year of the age of Artemis.Well ho-ly shit.  Those adventurers not only found the merchant, but they uncovered a cult right under our noses.  In our freaking backyards.  So they say.  Turns out when the sheriff investigated, he found a bunch of dead goblins and the rest of Olly's caravan, but no cultists.  Olly swears up and down that the cultists were there. They didn't just get up and walk off.  Did they?Anyway, I'm going to have to give those adventurers some respect.  They managed to turn a milk run into disaster and lived to tell the tale.  Maybe I can trust them to handle some business outside of Gandur.  It's a big Kingdom out there after all!  When they get back, I'll see if they can handle that situation in Witdel that Olly mentioned."
  },
  {
    "Name": "Journal - Chapter 2 - \"The Wolves of Witdel\"",
    "Bio": "You're not sure when this journal page appeared in your inventory.  It feels as if it has always been there.  The script is written in common and, somehow, you recognize the handwriting of Father Johan Merriksonn.Day 112 of the 987th year of the age of ArtemisIt has been almost 2 months since my dear brother Alexi disappeared.  Since that time, the wolves in the woods outside of Witdel have become more aggressive.  They're taking sheep right out from under our noses.  Livestock disappearing from locked paddocks and shepherds hearing strange sounds at night.  I wonder if Alexi's protection all these years were the only thing keeping these wolves away.  May Vinesnoy watch over us.Day 113 of the 987th year of the age of Artemis.The town's economy is starting to hurt.  Tillus is irate. I know he only wants the best for Witdel, but he is blinded by the numbers. He isn't considering the toll on the people.  A group of the young ones went into the forest last night.  They returned clawed to ribbons.  We thought young Willen was killed, but he later showed up on the Meyer's doorstep.  Poor lad is delirious, talking about hearing voices in the night.Day 115 of the 987th year of the age of Artemis.Tillus finally agreed to send for hired help. The town coffers can afford a hit if it means these wolf attacks stop. I sent a messenger to Gandur.  I'm told the Hawks have established a guildhall in that town.  I pray the adventurers arrive quickly.  Perhaps they will be able to bring me some peace about my brother.Day 117 of the 987th year of the age of Artemis.The adventurers arrived late in the evening while I was in council.  We heard them enter, loudly and obnoxiously.  They managed to anger dear Leanor something fierce.  It took me hours to finally calm her down afterwards.  The group did not endear themselves to the citizens of Witdel at all.  The dark elf accused Leanor of dealing in illegal goods and the human attempted to haggle with Tillus about their payment, despite having achieved nothing!  I am beginning to wonder if Tillus was right all along.  I directed them to Alexi's home as a starting point, but they decided to retire for the evening.  I hope tomorrow brings them success.Day 118 of the 987th year of the age of Artemis.Today is a dark day for Witdel. A halfling arrived early in the morning from the capital, name of Polo Humblegrain.  He said he was a magical researcher that had been in contact with Alexi.  I directed him to the Alexi's house just as I had the adventurers.  Polo was eager to find out what happened to Alexi and left before the adventurers even awoke for the day.If I had known it would be the last time I would see him alive, I never would have let him leave.The Wilson's boy came into town later that day, saying that he saw the adventurers carrying Polo into the woods.  Some of the young lads followed the adventurer's trail into the woods, where they found...I cannot bring myself to record what they found, for I dare not dwell on it.  Polo Humblegrain was dead, executed I'm sure by those same adventurers that we hired.  Vinesnoy help us...we did not know.  We could not have known the horrors those adventurers would bring.The adventurers returned later, covered in blood and reeking of the stench of death. They claimed the wolves were sentient and wanted us to strike a deal with the town.  But what of my brother?  The adventurers knew nothing.  They even lied to my face about Polo.Tillus was furious, of course.  Corel believed their story, and eventually so did the rest of the council.  Disgusting.  But alas, Corel insisted we pay the adventurers the agreed upon reward since they did technically present us with a solution to the wolf problem.But my brother is still missing.  I have no answers.  I have no closure.  Now I worry I never will.The closest thing to satisfaction I received this day was watching the adventurers taken away in irons.  Arrested for the murder of Polo Humblegrain.  They even found poor Polo's...head...stuffed away in the warforged's bag like a trophy.The Hawks are horrible people.  I pray that Vinesnoy guides the hands of justice swiftly.Day 119 of the 987th year of the age of ArtemisCorel has returned from meeting these wolves.  Apparently they are led by a huge blue wolf named \"Bolt.\"  The wolves claim that a man disappeared in a flash of light, and that caused their new intelligence.  I will always wonder if this could have been Alexi, but due to the Hawks incompetence I will never know.  I still do not believe all of it, but Corel insists that a path to peace has been found.  I am troubled that a town such as ours can be both aided and devastated by the Hawks.I have heard that an inquisitor from Ortelia has been summoned to judge the Hawks.  May Vinesnoy's light shine upon this land."
  },
  {
    "Name": "Journal - Chapter 3 - \"The Library of Vesucan\"",
    "Bio": "You're not sure when this journal page appeared in your inventory.  It feels as if it has always been there.  The script is written in common and, somehow, you recognize the handwriting of Virra Bafflestone.Day 139 of the 987th year of the age of ArtemisMs. Amastacia had me draft a request to the Hawks guild in Gandur for aid today.  Poor dear sweet Dabbledob has locked himself in the Library again.  Bless his heart.  He's brilliant but often so blind to things that are obvious.  Like my affections!  Ms. Amastacia and I tried to enter the library, but those books are out of control!  One of them fired some kind of blueish beam at us!  Whatever magic is powering those books has made them aggressive.  I hope Dabbledob will be safe!Day 140 of the 987th year of the age of ArtemisI got a return message from a Mr. Havvish of the Hawks guild.  The adventurers are on their way!  I hope they get here soon.  I know Dabbledob can conjure food and drink, but he's probably going crazy locked up in his office with all those books flying around!Day 145 of the 987th year of the age of ArtemisThe adventurers are still not here yet.  I'm trying to busy myself with my duties in the mayor's offfice, but it's so hard to work knowing that Dabbledob is trapped just across the street in that mean old library!  Ms. Amastacia is convinced that this library is going to rejuvenate the town.  We've lost so much tourism and business the last few years.  I trust Ms. Amastacia knows what she's doing, but this Library will need to be a HUGE success if we're to stay in the green in our ledgers.Day 148 of the 987th year of the age of ArtemisThe Hawks finally arrived today.  I know the road from Gandur is long, but poor Dabbledob has been trapped in that Library for over a week!  They met with Ms. Amastacia and agreed to help!  Those kind selfless souls didn't even ask about the reward or payment, they just charged right into that nasty library!It's been an hour.  No word yet.Two hours.  Oh dear.The adventurers are back!  I hope they fixed the problem.  I'll be back, Mr. diary, when I've spoken with Dabbledob!(The next page is crinkled, as if the page was wet and later dried.)No no no no why no poor dabbledob is gone why why didnt I do something earlierNo.  No.  Remain strong, Virra.  You have to help Ms. Amastacia.  You have to help Vesucan.  Bless those adventurers, I'm sure they did their best.  It was foolish to hold out hope after a week.  I'll need to visit the temple of Vinesnoy this week.  I have a lot ot talk about."
  },
  {
    "Name": "Journal - Chapter 4 - \"The Mines of Ironrock\"",
    "Bio": "You're not sure when this journal page appeared in your inventory.  It feels as if it has always been there.  The script is written in common and, somehow, you recognize the handwriting of Bheldahr Sternkith.Day 162 of the 987th year of the age of ArtemisThe news of a necromancy sighting in the Ironrock mines had come across my desk a week earlier. Apparently a dwarven mining operation stumbled into a tomb of some sort, buried long ago most likely.I arrived in Ironrock in the morning. I could smell the filth of undeath as soon as my boots touched ground off the wagon.  I proceeded to the mine's foreman and town's mayor, Adnur Lenkin.  As a kinsman, I expected Mr. Lenkin to be more accommodating to my demands. Vinesnoy's path is very clear on the undead, and I should have proceeded immediately into the mine to cleanse it.Mr. Lenkin had other plans.It seems that before my arrival, Mr. Lenkin sent a request for adventurers to this \"Hawks\" guild out of Gandur.  He had apparently been waiting almost a month before my arrival and was insistent that I wait for these adventurers to arrive.I hope they arrive soon.Day 164 of the 987th year of the Age of ArtemisI did not have to wait long. The adventurers arrived just a few days after I did. Quite a sorry lot they appear to be. I thought I sensed something from the human when we first met, but I could not be certain. It is likely the proximity of the undead in the mines below my feet have made me jittery. Regardless, the adventurers were obviously not undead and that was good enough for me.Mr. Lenkin explained the situation, and they dove into the mines without any fuss. I admired their bravery, I just hoped it was not foolishness.They were gone three or perhaps four hours, but they returned victorious and successful. Apparently the tomb housed a trio of mummified spellcasters, intent on raising the skeletons and bodies of their former servants. With the mine clear, I am now free to study the architecture of the tomb and determine the cause of this undead uprising.One of the adventurers, a Mr. Ignis Scalecracker, is separating from his group to assist me in my study. I find him a rather engaging intellectual, something I would not have expected from his towering draconic appearance. Vinesnoy teaches that the cycle of renewal creates all manner of creatures, so I am not surprised.Mr. Lenkin seems to have received some troubling news from Louvillefit. Perhaps the rest of Mr. Scalecracker's party can handle the matter while we research this tomb."
  },
  {
    "Name": "Journal - Chapter 5 - \"Crassus's Revenge\"",
    "Bio": "You're not sure when this journal page appeared in your inventory.  It feels as if it has always been there.  The script is written in common and, somehow, you recognize the handwriting of Olly Coopersmith.Day 189 of the 987th year of the age of ArtemisAs I write this, I am standing in the forest area outside of Gandur surrounded by my fellow residents.  The flames are still burning.  We have just received word that the Hawks have ended the threat, and I shall endeavor to record what happened here while the memory is still fresh.Months ago, I was lured into a trap by cultists of Moloch, lead by this despicable human named Crassus.  I would have surely perished if not for the intervention of a group of adventurers I would come to know as the Hawks.  They slew Crassus, the human known as Valon dealing the final blow to end that evil.  Or so we thought.I set up shop in Gandur after I recovered, and at the advice of the Hawks I started a jewelcrafting business.  The Hawks convinced Gandur's sheriff, Roland Tress, to prepare for a possible cultist attack.It would be almost 80 days until that attack came.When it arrived, it was not a group of men wielding swords as expected, it was a horde of the undead.  Zombies!  We followed the plan that Roland set up for us.  Most of the residents, including myself, were able to reach the safety of Vinesnoy's Temple. Priestess Illsuna used her cleric abilities to hold the undead at bay, but much of the town was overrun by the undead and their cultist handlers. The militia did their best, but many of them fell to the horde.We surely would not have survived if the Hawks had not arrived. They were off adventuring, as they do, and we were most fortunate they arrived on this night!  They tore through the undead and made a path out of town for us to escape.Over the last couple of months, I had been collecting diamonds as they came through my shop.  As the primary component of resurrection spells, diamonds are exceedingly rare in Ortelia.  They've almost been completely used up over the centuries, and it was to be my gift to the Hawks as thanks for saving me from that pit.  Instead, I gave the diamonds to Illsuna in hope they will be useful.  The priestess joined the Hawks as they ventured deeper into the town.I joined the rest of the survivors in escaping from the village. Jannetty was faithfully at his post just outside the gate, and he directed us to a safe place outside of the village in the woods.  There we waited as we watched our homes burn in the distance.A seemingly eternity later, two more survivors joined us.  One of them, thankfully, was my friend Roy.  The Ratkeys Inn was gone, the first victim of the attack and the logical place to find most of the townsfolk.  Those of us not at the inn made it to the temple, but the patrons of the tavern were slaughtered.  Roy told me that the Hawks arrived just in time to save his life.Almost 30 minutes later, we got word from Jannetty that the Hawks had defeated the leader of the attack just at the gates of the keep.  The leader was Crassus, again!  Somehow resurrected as an undead abomination, it was Crassus and his vile cult that drove the zombies to our doorsteps.  The Hawks killed him for good this time, with Ignis reducing his body to ash.  Some justice for our fallen brethren.One of the Hawks, Canyea, was killed in the battle. Fortunately, Illsuna was able to use the diamonds I gave her to bring him back with magic. Amazing.  Unfortunately, I only had enough diamonds to use the spell once.That means there is no hope to bring back Roland Tress, who also lost his life in the battle. It must have been a hard choice for Illsuna to decide who to bring back. She had to know that saving Canyea also condemned Roland.  May he rest in peace, our beloved sheriff.The remaining militia are putting out the rest of the fires.  Gandur will survive, thanks to the Hawks."
  },
  {
    "Name": "Laws of the Kingdom of Ortelia",
    "Bio": "Within the sight of the King, who protects the lands of Ortelia and its people, any who are presented for judgement before the presiding officials entrusted with the wisdom of the monarchy are to have their sentence carried our accordingly.  All fines and punishments for crimes against any Ortelian soldiers or nobles are doubled.  All fines and punishments regarding crimes against any Ortelian official or member of the Dragon Council are tripled.Theft: 2–5 days incarceration and a fine equal to the worth stolen.Ownership of another intelligent humanoid creature: 10–20 months incarceration and a fine of 1,500 gp.Trespassing: 5 days incarceration and a fine of 120 gp.Damage to private property: 5–20 days incarceration or a fine of twice the worth of property destroyed.Damage to royal property: 12–50 days incarceration and a fine of twice the worth of property destroyed.Kidnapping: 60 days incarceration and/or a fine of 800 gp.Worship of Betrayer Gods: 150 days incarceration, or execution.Assault with intent to injure: 12 days incarceration and a fine of 200 gp.Assault with intent to kill: 200 days incarceration and a fine of 1,200 gp, or execution.Murder: 5–10 years incarceration and/or a fine of 4,000 gp, or execution.Treason: execution."
  },
  {
    "Name": "Letter from Bruce Gresnar",
    "Bio": "Alright you primitive screwheads, listen up.  I'm writing this down so your cute little pea-brains can keep track of what you need to do.Here's our deal:  You get me the Eye of Brulle and I will get you back into Ortelia safely so you can have your revenge or whatever.  I tuned out most of your backstory.  Because I don't care.  Just want to establish that up front.Brulle's Lair, or I guess now it should be called the Tomb of Brulle, is located somewhere in southern Gisesia.  You will need to discover its exact location.  It's been centuries, but somebody in Esteria has to have kept a good record.  Since you don't have access to the Libraries in Ortelia, I would suggest buttering up the egg heads in Kes or Abrosia.Once you find the tomb, you will need the Staff of Brulle to open it.  The staff is comprised of the shaft and the headpiece.The headpiece is broken into two pieces, front and back, that resemble amulets.  I already have the front half.  The back half is around the neck of some hoity-toity jackass in Abrosia. You'll need a writ of passage to cross the border into Abrosia AND you'll need an excuse to get up and close to some Abrosian royalty.  Fortunately, I know just the gal to get you both things.  You'll need to talk to Theresa Voerman, right here in Gisesia.  You'll probably have to run a few jobs for her first, but I have faith you're not as dumb as you look.The shaft is located in the magical archives of Kes.  You'll need a grade A thief on your team to break into the archives.  You might even be able to find information on the tomb's location while you're at it.  I have just the cutpurse in mind, but they've gone and got themselves arrested in Ortelia.  Damn martial law.  I'm arranging to have them transferred to the prison in Damungences.  You'll need to help them with an \"early parole\".  It's just across the border, so hopefully you won't run into too much trouble.  It'll take time to bribe the right officials and forge the right paperwork, so while I'm doing that you should talk to Theresa.Don't screw this up and get killed, or I'll have to just start over with the next group of adventurers that pass through my city.  That'd be inconvenient for me.- Bruce"
  },
  {
    "Name": "Lycanthrope Curse - Weretiger",
    "Bio": "You are cursed as a weretiger!  Until the curse is removed, you may turn into a weretiger at any moment.  These changes are unpredictable and uncontrollable.While transformed, you cannot cast spells with verbal or somatic components due to your changed physiology.After 5 transformations, you learn to invoke the transformation at will.You can choose to return to your normal form after finishing a short or long rest.If the curse is removed, the trauma of the curse removal causes you to take 3 levels of Exhaustion.When you turn into a weretiger, you gain the following abilities:Your Strength ability score is raised to 17 (+3) if possible.You retain any racial abilities from your normal form.You have advantage on Wisdom (Perception) checks that rely on hearing or smell.You have Darkvision of 60 feet.You can make a Claw Attack.  Your claws are considered natural weapons (1d8 + Strength Modifier).  A humanoid that takes damage from your Claw Attack must make a DC 13 saving throw or be cursed with weretiger lycanthropy.You have the Pounce ability.  If you move at least 15 feet towards an enemy and succeed with a Claw Attack, that target must succeed on a Strength saving throw (DC: 8 + proficiency + strength modifier) or be knocked prone.You can make a Bite Attack (1d10 + Strength Modifier) against a prone target within 5 feet as a bonus action.You have a chance to transform again into a full Tiger.  In this state you are feral and lose control.  You will attack the nearest possible target until you are rendered unconscious or until 1d4 hours have passed, when you gain 3 levels of Exhaustion and return to your normal form."
  },
  {
    "Name": "Map of Esteria",
    "Bio": "Every citizen of Esteria has a general knowledge of the placement of states and the general shape of the land."
  },
  {
    "Name": "Map of Morvilterre Earldom, Ortelia",
    "Bio": ""
  },
  {
    "Name": "Map of Ondrerinne province, Gisesia",
    "Bio": ""
  },
  {
    "Name": "Map of Ortis province, Ortelia",
    "Bio": ""
  },
  {
    "Name": "Mercenary's Note (Wildwood Manor)",
    "Bio": "Door's locked up tight. I can hear something below from the dump well. I bet whatever has anchored the spirit here is down there. I think the key is related to the ol' lady that lived here somehow.  Maybe in her bedroom? I should probably check the crypt outside too. The candles in the dining room were lit, creepy as hells, so maybe that means something?  I'll start in that weird chapel in the northwest corner of the manor.I'll figure this out eventually.  When I do, Theresa will pay me well.  Or maybe I'll give it to Winny.  I bet she'll \"pay\" me well too!"
  },
  {
    "Name": "Nisha's Scribbled Note",
    "Bio": "Damn it.  Damn it all to hell.  Mugging used to be so profitable!Twice.  TWICE.  Twice those adventurers managed to get one up on me.  The first time they used their magics to manipulate me.  So I get myself warded.  Second time, they wipe out my crew and I barely escaped.  It's gonna be impossible to get some boys together for a while.I bet those goons want the bounty on my head.  This used to be fun!  Now it's getting too hot.  I have got to get out of here.I'll hop the next carriage to Ondrerinne.  Bruce will help me.  He always will.Note to self:  Nisha, burn this note before you leave."
  },
  {
    "Name": "Note from Crassus (Translated)",
    "Bio": "Praise Moloch.The cataclysm will be renewed.Praise Moloch.The Lord of Flies will be dethroned.Praise Moloch.Malagard will be freed.Praise Moloch.Beleth will be pleased.Praise Moloch.I, Crassus, shall make his followers."
  },
  {
    "Name": "Potion of Greater Healing",
    "Bio": "You regain 4d4+2 hit points when you drink this potion. Whatever its potency, the potion’s red liquid glimmers when agitated."
  },
  {
    "Name": "Potion of Healing",
    "Bio": "You regain 2d4+2 hit points when you drink this potion. Whatever its potency, the potion’s red liquid glimmers when agitated."
  },
  {
    "Name": "Ring of Moloch",
    "Bio": "This mysterious ring was worn by the undead cult leader Crassus.  The outer layer of the ring features the visage of the archdevil Moloch.  The interior of the ring has the engraved image of two ravens circling each other, the crest of the Swain family.Placing the ring on your finger has no apparent magical effects."
  },
  {
    "Name": "Sending Stones",
    "Bio": "Sending stones come in pairs, with each smooth stone carved to match the other so the pairing is easily recognized. While you touch one stone, you can use an action to cast the sending spell from it. The target is the bearer of the other stone. If no creature bears the other stone, you know that fact as soon as you use the stone and don't cast the spell.Once sending is cast through the stones, they can't be used again until the next dawn. If one of the stones in a pair is destroyed, the other one becomes nonmagical."
  },
  {
    "Name": "The Quest Log",
    "Bio": "Major Objectives (The Hawks)Keep eye out for Cult of Moloch (Probably ties to Ignis dream)Side Objectives (PC Backstory and World)Learn more about the cult of Moloch.    - Research at the library?Learn more about Warforged lore.Learn more about Vinesnoy, diety of Ortelia.Invest in the Hawk's guildhall reconstruction.Get the red-skinned lady between Gandur and Geymakdaza. Bring back alive.Keep an eye out for the cult - \"Village of Marvelles\" \"Raveylessynes\"Completed:Main Quests:The MinesThe libraryInvestigate reports of animal attacks in Witdel.The PitSide Objectives:Wait for Olly Coopersmith to set up a jeweler's business.Appraise gems and identify magical items.Investigate Havgatlis.Learn more about the dark skinne in Courvillessas"
  },
  {
    "Name": "Unique Drow-Jam (DJ) Device",
    "Bio": "Requires Attunement by a BardThis strange device can record one musical arrangement up to 10 minutes. As an action, you can have the device play the song with perfect recall.  You can have the music emanate from this device or magically from another musical instrument you touch.In addition, any humanoid creature with an intelligence score of 9 or lower will be charmed by the caster (Wisdom DC 10) for up to 4 hours.  A creature charmed in this way will be compelled to stay and continue listening to the music."
  },
  {
    "Name": "Vendor and Shop Listings",
    "Bio": "Use this website to get an idea of what shops sell what: https://www.thievesguild.cc/shops/Unless otherwise stated, all towns contain an inn or tavern of \"Rural\" quality.__Gandur__General Store (Rural)Blacksmith (Rural)Fletcher (Rural)Tailor (Rural)Shady (Rural)Temple (Rural)Jeweler (Urban)__Witdel__All services denied.__Arrois__General Store (Rural)Vendor Stalls (Rural)Alchemist (Rural)__Silifrazit__General Store (Rural)Leatherworker (Rural)Music/Games (Rural)__Vesucan__General Store (Rural)Bookstore (Premium)__Havgatlis__General Store (Rural)Vendor Stalls (Fish Market only)__Geymakdaza__General Store (Rural)Fletcher (Rural)__Ironrock__General Store (Rural)Blacksmith (Urban)Adventurer Shop (Rural)__Fernonville__General Store (Rural)Arcane (Rural)Alchemist (Rural)"
  }
]